<mxfile host="app.diagrams.net" modified="2024-03-08T12:43:42.302Z" agent="Mozilla/5.0 (Windows NT 10.0; Win64; x64) AppleWebKit/537.36 (KHTML, like Gecko) Chrome/122.0.0.0 Safari/537.36" version="21.5.0" etag="zNU3ITNmOFURlf5bBQ4s" type="gitlab">
  <diagram name="Page-1" id="StrdDYZaIexzoGHa44qf">
    <mxGraphModel>
      <root>
        <mxCell id="0" />
        <mxCell id="1" parent="0" />
      </root>
    </mxGraphModel>
  </diagram>
</mxfile>
